%YAML 1.1
%TAG !u! tag:unity3d.com,2011:
--- !u!1045 &1
EditorBuildSettings:
  m_ObjectHideFlags: 0
  serializedVersion: 2
  m_Scenes:
  - enabled: 1
    path: Assets/Scene/Menu_Scene.unity
    guid: 3fb8d4ceb24f6a4438b2d2abe3c1504e
  - enabled: 1
    path: Assets/Scene/Game_Scene.unity
    guid: c76be94f9a2ce1f4c91d164340ab9ac3
  m_configObjects: {}
